
{
    "_id" : "570239ded3687a0bac396371",
    "Title" : "Mr",
    "Telephone" : "02084321234",
    "AccountType" : "Individual",
    "Address1" : "Teddington Studios",
    "Address2" : "Broom Road",
    "Address3" : "Teddington",
    "Address4" : "London",
    "Town" : "London",
    "Country" : "United Kingdom",
    "County" : "London",
    "Postcode" : "TW1 9AA",
    "Firstname" : "Leke",
    "Surname" : "Oluwasanmi",
    "Email" : "lekibaba@gmail.com",
    "Password" : "kOjQYWcaiMA82lqR6eOY9SXwN+5D/XWQqkf4XChC",
    "ListingIds" : [ 
        "57014e71cf0884214cc09834", 
        "57014e71cf0884214cc09830"
    ],
    "SavedSearches" : [],
    "LoginAttempts" : 0,
    "Permissions" : [],
    "CreatedOn" : ISODate("2016-03-12T18:10:09.164Z"),
    "UpdatedOn" : ISODate("2016-03-12T18:10:09.164Z"),
    "Published" : 1,
    "LiveFrom" : ISODate("2016-03-12T18:10:09.164Z"),
    "UpdatedById" : "56bc9e21cf0886108818479e",
    "Status" : 0,
    "IsActivated" : true
}


{
    "_id" : "570239ded3687a0bac396361",
    "Title" : "Mr",
    "Telephone" : "02084321234",
    "AccountType" : "Individual",
    "Address1" : "Teddington Studios",
    "Address2" : "Broom Road",
    "Address3" : "Teddington",
    "Address4" : "London",
    "Town" : "London",
    "Country" : "United Kingdom",
    "County" : "London",
    "Postcode" : "TW1 9AA",
    "Firstname" : "Leke",
    "Surname" : "Oluwasanmi",
    "Email" : "lekibaba@yahoo.com",
    "Password" : "kOjQYWcaiMA82lqR6eOY9SXwN+5D/XWQqkf4XChC",
    "ListingIds" : [ 
        "57014e71cf0884214cc09834", 
        "57014e71cf0884214cc09830"
    ],
    "SavedSearches" : [],
    "LoginAttempts" : 0,
    "Permissions" : [],
    "CreatedOn" : ISODate("2016-03-12T18:10:09.164Z"),
    "UpdatedOn" : ISODate("2016-03-12T18:10:09.164Z"),
    "Published" : 1,
    "LiveFrom" : ISODate("2016-03-12T18:10:09.164Z"),
    "UpdatedById" : "56bc9e21cf0886108818479e",
    "Status" : 0,
    "IsActivated" : true
}