{
    "_id" : "56f2a19bcf0884498410d05d6",
    "Title" : "About CIPD Directory",
    "UrlSlug" : "about",
    "Body" : "This is about us page",
    "CreatedById" : "56f2a19bcf088449849e03e3",
    "PageUrls" : "",
    "Status" : 0,
    "UpdatedById" : "56f2a19bcf088449849e03e3",
    "CreatedOn" : ISODate("2001-01-01T00:00:00.000Z"),
    "UpdatedOn" : ISODate("2001-01-01T00:00:00.000Z")
}